
Bnode received data at 1413478675846561 usec 

Bnode received data at 1413478675847484 usec 

Bnode received data at 1413478675848204 usec 

Bnode received data at 1413478675848989 usec 

Bnode received data at 1413478675849562 usec 

Bnode received data at 1413478675850279 usec 

Bnode received data at 1413478675850926 usec 

Bnode received data at 1413478675851585 usec 

Bnode received data at 1413478675852172 usec 

Bnode received data at 1413478675852900 usec 

Bnode received data at 1413478675853502 usec 

Bnode received data at 1413478675854112 usec 

Bnode received data at 1413478675854847 usec 

Bnode received data at 1413478675855371 usec 

Bnode received data at 1413478675856018 usec 

Bnode received data at 1413478675856574 usec 

Bnode received data at 1413478675857100 usec 

Bnode received data at 1413478675857760 usec 

Bnode received data at 1413478675858301 usec 

Bnode received data at 1413478675858811 usec 

Bnode received data at 1413478675859467 usec 

Bnode received data at 1413478675860061 usec 

Bnode received data at 1413478675860566 usec 

Bnode received data at 1413478675861283 usec 

Bnode received data at 1413478675861827 usec 

Bnode received data at 1413478675862338 usec 

Bnode received data at 1413478675862865 usec 

Bnode received data at 1413478675863558 usec 

Bnode received data at 1413478675864083 usec 

Bnode received data at 1413478675864656 usec 

Bnode received data at 1413478675865222 usec 

Bnode received data at 1413478675865737 usec 

Bnode received data at 1413478675866360 usec 

Bnode received data at 1413478675866849 usec 

Bnode received data at 1413478675867368 usec 

Bnode received data at 1413478675867967 usec 

Bnode received data at 1413478675868443 usec 

Bnode received data at 1413478675868943 usec 

Bnode received data at 1413478675869564 usec 

Bnode received data at 1413478675870035 usec 

Bnode received data at 1413478675870549 usec 

Bnode received data at 1413478675871098 usec 

Bnode received data at 1413478675871683 usec 

Bnode received data at 1413478675872193 usec 

Bnode received data at 1413478675872716 usec 

Bnode received data at 1413478675873163 usec 

Bnode received data at 1413478675873778 usec 

Bnode received data at 1413478675874300 usec 

Bnode received data at 1413478675874843 usec 

Bnode received data at 1413478675875298 usec 

Bnode received data at 1413478675875754 usec 

Bnode received data at 1413478675876276 usec 

Bnode received data at 1413478675876765 usec 

Bnode received data at 1413478675877287 usec 

Bnode received data at 1413478675877747 usec 

Bnode received data at 1413478675878241 usec 

Bnode received data at 1413478675878724 usec 

Bnode received data at 1413478675879293 usec 

Bnode received data at 1413478675879723 usec 

Bnode received data at 1413478675880237 usec 

Bnode received data at 1413478675880744 usec 

Bnode received data at 1413478675881221 usec 

Bnode received data at 1413478675881722 usec 

Bnode received data at 1413478675882218 usec 

Bnode received data at 1413478675882730 usec 

Bnode received data at 1413478675883202 usec 

Bnode received data at 1413478675883720 usec 

Bnode received data at 1413478675884179 usec 

Bnode received data at 1413478675884699 usec 

Bnode received data at 1413478675885106 usec 

Bnode received data at 1413478675885555 usec 

Bnode received data at 1413478675885944 usec 

Bnode received data at 1413478675886417 usec 

Bnode received data at 1413478675886889 usec 

Bnode received data at 1413478675887317 usec 

Bnode received data at 1413478675887819 usec 

Bnode received data at 1413478675888261 usec 

Bnode received data at 1413478675888730 usec 

Bnode received data at 1413478675889189 usec 

Bnode received data at 1413478675889663 usec 

Bnode received data at 1413478675890201 usec 

Bnode received data at 1413478675890732 usec 

Bnode received data at 1413478675891179 usec 

Bnode received data at 1413478675891683 usec 

Bnode received data at 1413478675892232 usec 

Bnode received data at 1413478675892720 usec 

Bnode received data at 1413478675893269 usec 

Bnode received data at 1413478675893823 usec 

Bnode received data at 1413478675894273 usec 

Bnode received data at 1413478675894806 usec 

Bnode received data at 1413478675895258 usec 

Bnode received data at 1413478675895687 usec 

Bnode received data at 1413478675896183 usec 

Bnode received data at 1413478675896615 usec 

Bnode received data at 1413478675897087 usec 

Bnode received data at 1413478675897538 usec 

Bnode received data at 1413478675898025 usec 

Bnode received data at 1413478675898463 usec 

Bnode received data at 1413478675898932 usec 

Bnode received data at 1413478675899428 usec 

Bnode received data at 1413478675899731 usec 
